<svg xmlns="http://www.w3.org/2000/svg" width="112.38" height="92.75" viewBox="0 0 112.38 92.75">
  <metadata><?xpacket begin="﻿" id="W5M0MpCehiHzreSzNTczkc9d"?>
<x:xmpmeta xmlns:x="adobe:ns:meta/" x:xmptk="Adobe XMP Core 5.6-c138 79.159824, 2016/09/14-01:09:01        ">
   <rdf:RDF xmlns:rdf="http://www.w3.org/1999/02/22-rdf-syntax-ns#">
      <rdf:Description rdf:about=""/>
   </rdf:RDF>
</x:xmpmeta>
                                                                                                    
                                                                                                    
                                                                                                    
                                                                                                    
                                                                                                    
                                                                                                    
                                                                                                    
                                                                                                    
                                                                                                    
                                                                                                    
                                                                                                    
                                                                                                    
                                                                                                    
                                                                                                    
                                                                                                    
                                                                                                    
                                                                                                    
                                                                                                    
                                                                                                    
                                                                                                    
                           
<?xpacket end="w"?></metadata>
<defs>
    <style>
      .cls-1 {
        fill: #fff;
        fill-rule: evenodd;
      }
    </style>
  </defs>
  <path id="Shape_Invent" data-name="Shape Invent" class="cls-1" d="M2367.5,874.654a98.009,98.009,0,0,1,19.64,46.93h0a1.733,1.733,0,0,1-1.57,1.884h0a1.744,1.744,0,0,1-1.89-1.576h0s-0.03-.333-0.12-1.011h0c-0.09-.681-0.23-1.683-0.46-2.96h0a92.1,92.1,0,0,0-2.57-10.512h0a94.34,94.34,0,0,0-15.76-30.612h0c-14.78-18.755-40.69-35.73-87.15-33.064h0a1.742,1.742,0,0,1-1.84-1.633h0a1.742,1.742,0,0,1,1.64-1.831h0c47.3-2.793,74.65,14.738,89.99,34.278h0c0.03,0.035.06,0.073,0.09,0.107h0Zm-74.39-43.163a1.744,1.744,0,0,1-.5,2.4h0l-12.91,8.524,13.84,8.916a1.731,1.731,0,0,1,.52,2.4h0a1.734,1.734,0,0,1-2.4.518h0L2275.58,843.9a1.729,1.729,0,0,1-.79-1.449h0a1.74,1.74,0,0,1,.78-1.456h0L2290.7,831a1.734,1.734,0,0,1,2.32.375h0c0.03,0.037.06,0.076,0.09,0.116h0Z" transform="translate(-2274.78 -830.719)"/>
</svg>
